Chapter 4 Applications | UVX Headway Distribution
…
            UVX Headway Distribution

Chapter 4 Applications

The timepoint data was reviously analyzed for headway distributions corresponding to the four separate TSP thresholds for the entire route and T-tests indicated that the means of the headway distributions were not significantly different. However, the distributions of the four thresholds were not the same. That brief analysis is shown below.

## # A tibble: 1,015,863 x 24
##    NEW_Date Block Trip  Vehicle Route Direction `Time Point` Schedule
##    <chr>    <chr> <chr> <chr>   <chr> <chr>     <chr>        <chr>   
##  1 1/2/19   2400  04:17 17110   830X  NB TO OR~ PROVFRST     04:17   
##  2 1/2/19   2400  04:17 17110   830X  NB TO OR~ 400----S     04:19   
##  3 1/2/19   2400  04:17 17110   830X  NB TO OR~ CNTR--ST     04:20   
##  4 1/2/19   2400  04:17 17110   830X  NB TO OR~ 300----N     04:21   
##  5 1/2/19   2400  04:17 17110   830X  NB TO OR~ ACADSQUR     04:22   
##  6 1/2/19   2400  04:17 17110   830X  NB TO OR~ JOA-QUIN     04:24   
##  7 1/2/19   2400  04:17 17110   830X  NB TO OR~ BYU-CMPS     04:26   
##  8 1/2/19   2400  04:17 17110   830X  NB TO OR~ BYU----N     04:28   
##  9 1/2/19   2400  04:17 17110   830X  NB TO OR~ BYU-STAD     04:29   
## 10 1/2/19   2400  04:17 17110   830X  NB TO OR~ 2230---N     04:31   
## # ... with 1,015,853 more rows, and 16 more variables: DepartureTime <chr>,
## #   Status <chr>, Reliability <chr>, Dwell <chr>, Travel <chr>, Hour <chr>,
## #   Headway <chr>, REL_sec <chr>, `TT+Dwe;;_sec` <chr>, Dwell_sec <chr>,
## #   TT_sec <chr>, `tot TT+Dwell_sec` <chr>, `TP #` <chr>, Threshold <chr>,
## #   ChangeDay <chr>, Peak <chr>

## # A tibble: 1,015,863 x 12
##    route direction trip  timepoint vehicle date       time               
##    <chr> <chr>     <chr> <chr>     <chr>   <date>     <dttm>             
##  1 830X  NB        04:17 PROVFRST  17110   2019-01-02 2019-01-02 04:17:29
##  2 830X  NB        04:17 400----S  17110   2019-01-02 2019-01-02 04:19:48
##  3 830X  NB        04:17 CNTR--ST  17110   2019-01-02 2019-01-02 04:20:42
##  4 830X  NB        04:17 300----N  17110   2019-01-02 2019-01-02 04:21:29
##  5 830X  NB        04:17 ACADSQUR  17110   2019-01-02 2019-01-02 04:22:18
##  6 830X  NB        04:17 JOA-QUIN  17110   2019-01-02 2019-01-02 04:24:10
##  7 830X  NB        04:17 BYU-CMPS  17110   2019-01-02 2019-01-02 04:25:43
##  8 830X  NB        04:17 BYU----N  17110   2019-01-02 2019-01-02 04:28:23
##  9 830X  NB        04:17 BYU-STAD  17110   2019-01-02 2019-01-02 04:29:15
## 10 830X  NB        04:17 2230---N  17110   2019-01-02 2019-01-02 04:31:22
## # ... with 1,015,853 more rows, and 5 more variables: schedule <dttm>,
## #   reliability <drtn>, dwell <drtn>, travel <drtn>, threshold <fct>
…
